{
    "data": {
        "name": "My test room",
        "topic": "This is a topic",
        "jid": "roomTest@muc.mycompany.com",
        "creator": "56e6bc34c219157cb207e813",
        "users": [
                  {
                  "userId": "56e6bc34c219157cb207e813",
                  "additionDate": "2016-03-28T18:27:11.181Z",
                  "privilege": "moderator",
                  "status": "accepted",
                  "jid_im":"fake_iostester_jid@openrainbow.com",
                  }
                  ],
        "creationDate": "2016-03-28T18:27:10.970Z",
        "visibility": "private",
        "id": "56f9777e0e5e7d7535a48fa2"
    }
}