{
    "images": [
        {
            "filename": "done_icon.png",
            "idiom": "universal",
            "scale": "1x"
        },
        {
            "filename": "done_icon@2x.png",
            "idiom": "universal",
            "scale": "2x"
        },
        {
            "filename": "done_icon@3x.png",
            "idiom": "universal",
            "scale": "3x"
        }
    ],
    "info": {
        "author": "xcode",
        "template-rendering-intent": "template",
        "version": 1
    }
}
