{
    "data": [
             {
             "id": "111",
             "invitedUserId": "56e6bc34c219157cb207e813",
             "invitedUserEmail": "me@company.com",
             "invitingUserId": "friend1RainbowID",
             "invitingUserEmail": "alice@my-company.com",
             "requestedNotificationLanguage": "fr",
             "invitingDate": "2016-09-28T16:31:36.881Z",
             "lastNotificationDate": "2016-09-28T16:31:36.879Z",
             "acceptationDate": null,
             "status": "pending",
             "type": "visibility"
             },
             {
             "id": "222",
             "invitedUserId": "56e6bc34c219157cb207e813",
             "invitedUserEmail": "me@company.com",
             "invitingUserId": "friend2RainbowID",
             "invitingUserEmail": "carol@other-company.com",
             "requestedNotificationLanguage": "en",
             "invitingDate": "2016-09-29T07:54:35.096Z",
             "lastNotificationDate": "2016-09-29T07:54:35.093Z",
             "acceptationDate": null,
             "status": "accepted",
             "type": "visibility"
             }
             ],
    "limit": 100,
    "offset": 0,
    "total": 2
}
