{
    "errorCode": 400,
    "errorMsg": "Bad Request",
    "errorDetails": [
            {
                     "param": "email",
                     "msg": "Field email is mandatory."
            },
            {
                     "param": "email",
                     "msg": "Field email length must be between 3 and 255 characters."
            },
            {
                     "param": "email",
                     "msg": "Invalid field email. Expected an email string matching the regexp: XXX",
                     "value": "bobmycompany.com"
            }
        ],
    "errorDetailsCode": 400000
}
