{
    "users": [
              {
              "displayName": "J5 dddd",
              "emails": [
              
              ],
              "firstName": "J5",
              "jid_im": "fb43dbd763ef46a9af2f29d25a5f322c@jerome-all-in-one-dev-1.opentouch.cloud",
              "jid_tel": "tel_fb43dbd763ef46a9af2f29d25a5f322c@jerome-all-in-one-dev-1.opentouch.cloud",
              "lastAvatarUpdateDate": "2016-06-29T16:36:11.728Z",
              "lastName": "dddd",
              "companyName": "Default",
              "loginEmail": "j5@jhe.test.openrainbow.net",
              "id": "57599db93c919278a8a20b83",
              "companyId": "5739d560e7ed0c49ba9e43df"
              },
              {
              "jid_im": "c2bd56bf4ce54225a2bec296fb76e817@jerome-all-in-one-dev-1.opentouch.cloud",
              "lastAvatarUpdateDate": "2016-07-01T14:06:54.424Z",
              "lastName": "Heymonet",
              "firstName": "Jerome",
              "loginEmail": "jerome.heymonet@al-enterprise.com",
              "id": "5739dead1217912fe6bdcce5",
              "title": "Sa majest\u00e9 le roiioazniozaincnizoacnzaoi",
              "jid_tel": "tel_c2bd56bf4ce54225a2bec296fb76e817@jerome-all-in-one-dev-1.opentouch.cloud",
              "emails": [
                         {
                         "email": "jerome.heymonet@al-enterprise.com",
                         "type": "work"
                         },
                         {
                         "email": "adaaz@ceceec.comm",
                         "type": "work"
                         },
                         {
                         "email": "bcdef@kklll.com",
                         "type": "home"
                         }
                         ],
              "companyName": "Default",
              "nickName": "Albert",
              "country": "FRA",
              "companyId": "5739d560e7ed0c49ba9e43df",
              "displayName": "Jerome Heymonet"
              },
              {
              "displayName": "Thib2 Ack2",
              "emails": [
              
              ],
              "firstName": "Thib2",
              "jid_im": "998e8955e3da477f98946bf7272e231b@jerome-all-in-one-dev-1.opentouch.cloud",
              "jid_tel": "tel_998e8955e3da477f98946bf7272e231b@jerome-all-in-one-dev-1.opentouch.cloud",
              "lastAvatarUpdateDate": "2016-06-16T10:00:00.000Z",
              "lastName": "Ack2",
              "companyName": "Default",
              "loginEmail": "thib2@tac.test.openrainbow.net",
              "id": "573c6f540b2c816323964853",
              "companyId": "5739d560e7ed0c49ba9e43df"
              },
              {
              "displayName": "Thibaut2 Ackermann",
              "emails": [
              
              ],
              "firstName": "Thibaut2",
              "jid_im": "8d6f6bc4cb7c44ea918f585e40a016f2@jerome-all-in-one-dev-1.opentouch.cloud",
              "jid_tel": "tel_8d6f6bc4cb7c44ea918f585e40a016f2@jerome-all-in-one-dev-1.opentouch.cloud",
              "lastAvatarUpdateDate": "2016-06-16T10:00:00.000Z",
              "lastName": "Ackermann",
              "companyName": "Default",
              "loginEmail": "thibaut.ackermann@al-enterprise.com",
              "id": "573c6b740b2c816323964852",
              "companyId": "5739d560e7ed0c49ba9e43df"
              }
              ],
    "offset": 0,
    "total": 4,
    "limit": 4
}
